Proje Rapor : Elif Zehra Yılmaz 200401077
…
Çoğu veride herhangi bir uyku bozukluğu görülmezken Insomnia ve Sleep
Apnea aynı oranda görülmektedir. Kampanya oluştururken bu iki uyku
bozukluğuna da aynı derecede önem verilmesi gerekmektedir.

Q4 : Veri seti ön işlemesi

Occupation Sütunu

## # A tibble: 67 × 1
##    Occupation
##    <chr>     
##  1 Engineer  
##  2 Engineer  
##  3 Engineer  
##  4 Engineer  
##  5 Engineer  
##  6 Engineer  
##  7 Engineer  
##  8 Engineer  
##  9 Engineer  
## 10 Engineer  
## # ℹ 57 more rows

Occupation sütunundaki Software Engineer kayıtları Engineer
kayıtlarına dönüştürülmüştür.

BMI Category Sütunu

## # A tibble: 216 × 1
##    `BMI Category`
##    <chr>         
##  1 Normal Weight 
##  2 Normal Weight 
##  3 Normal Weight 
##  4 Normal Weight 
##  5 Normal Weight 
##  6 Normal Weight 
##  7 Normal Weight 
##  8 Normal Weight 
##  9 Normal Weight 
## 10 Normal Weight 
## # ℹ 206 more rows
…
